{
  "@context": "https://schema.org/",
  "@type": "Accommodation",
  "identifier": 2,
  "name": "Floor 2",
  "floorLevel": 2,
  "yearBuilt": 2006,
  "numberOfRooms": 10,
  "additionalProperty": {
    "name": "rooms",
    "value": [
      {
        "@type": "Room",
        "identifier": 221,
        "name": "S221",
        "description": "Salle informatique S221 - Espace Fauriel",
        "petsAllowed": false
      },
      {
        "@type": "Room",
        "identifier": 222,
        "name": "S222",
        "description": "Salle informatique S222 - Espace Fauriel",
        "petsAllowed": false
      },
      {
        "@type": "Room",
        "identifier": 212,
        "name": "S212",
        "description": "Pet Room S212 - Espace Fauriel",
        "petsAllowed": true
      }
    ]
  }
}
